{
    "openapi": "3.0.0",
    "info": {
        "title": "Map my garden Documentation",
        "description": "API for plant management",
        "contact": {
            "email": "erwann@duclos.xyz"
        },
        "license": {
            "name": "Apache 2.0",
            "url": "http://www.apache.org/licenses/LICENSE-2.0.html"
        },
        "version": "1.0.0"
    },
    "servers": [
        {
            "url": "http://localhost",
            "description": "MMG API Server"
        }
    ],
    "paths": {
        "/api/v1/plant": {
            "get": {
                "tags": [
                    "Plant"
                ],
                "summary": "List all plants",
                "description": "Returns plants data",
                "operationId": "listPlant",
                "responses": {
                    "200": {
                        "description": "Successful operation",
                        "content": {
                            "application/json": {
                                "schema": {
                                    "example": {
                                        "data": "[]",
                                        "links": {
                                            "self": "link-value"
                                        }
                                    }
                                }
                            }
                        }
                    },
                    "400": {
                        "description": "Bad Request"
                    },
                    "401": {
                        "description": "Unauthenticated"
                    }
                }
            },
            "post": {
                "tags": [
                    "Plant"
                ],
                "summary": "Store new plant",
                "description": "Returns plant data",
                "operationId": "storePlant",
                "requestBody": {
                    "required": true,
                    "content": {
                        "application/json": {
                            "schema": {
                                "required": [
                                    "plant_definition"
                                ],
                                "properties": {
                                    "name": {
                                        "type": "string",
                                        "example": "Tomate - graines données par paul"
                                    },
                                    "cultivar": {
                                        "type": "string",
                                        "example": "Green Zebra"
                                    },
                                    "description": {
                                        "type": "string",
                                        "example": "..."
                                    },
                                    "plant_definition": {
                                        "type": "integer",
                                        "example": "1"
                                    },
                                    "zone": {
                                        "type": "integer",
                                        "example": "1"
                                    }
                                },
                                "type": "object"
                            }
                        }
                    }
                },
                "responses": {
                    "201": {
                        "description": "Successful operation"
                    },
                    "400": {
                        "description": "Bad Request"
                    },
                    "401": {
                        "description": "Unauthenticated"
                    },
                    "403": {
                        "description": "Forbidden"
                    }
                }
            }
        },
        "/api/v1/plant/{id}": {
            "get": {
                "tags": [
                    "Plant"
                ],
                "summary": "Get plant information",
                "description": "Returns plant data",
                "operationId": "getPlantById",
                "parameters": [
                    {
                        "name": "id",
                        "in": "path",
                        "description": "Plant id",
                        "required": true,
                        "schema": {
                            "type": "integer"
                        }
                    }
                ],
                "responses": {
                    "200": {
                        "description": "Successful operation",
                        "content": {
                            "application/json": {
                                "schema": {
                                    "example": {
                                        "name": "Tomate",
                                        "cultivar": "Green Zebra",
                                        "description": "...",
                                        "plant_definition": "{id:1, name:'Pommier', family:'Rosaceae', description:'...'}",
                                        "zone": "{id:1, name:'zone 1'}",
                                        "tasks": "[]"
                                    }
                                }
                            }
                        }
                    },
                    "400": {
                        "description": "Bad Request"
                    },
                    "401": {
                        "description": "Unauthenticated"
                    },
                    "403": {
                        "description": "Forbidden"
                    }
                }
            },
            "put": {
                "tags": [
                    "Plant"
                ],
                "summary": "Update existing plant",
                "description": "Returns updated plant data",
                "operationId": "updatePlant",
                "parameters": [
                    {
                        "name": "id",
                        "in": "path",
                        "description": "Plant id",
                        "required": true,
                        "schema": {
                            "type": "integer"
                        }
                    }
                ],
                "requestBody": {
                    "required": true,
                    "content": {
                        "application/json": {
                            "schema": {
                                "properties": {
                                    "name": {
                                        "type": "string",
                                        "example": "Tomate - graines données par paul"
                                    },
                                    "cultivar": {
                                        "type": "string",
                                        "example": "Green Zebra"
                                    },
                                    "description": {
                                        "type": "string",
                                        "example": "..."
                                    },
                                    "plant_definition": {
                                        "type": "integer",
                                        "example": "1"
                                    },
                                    "zone": {
                                        "type": "integer",
                                        "example": "1"
                                    }
                                },
                                "type": "object"
                            }
                        }
                    }
                },
                "responses": {
                    "202": {
                        "description": "Successful operation"
                    },
                    "400": {
                        "description": "Bad Request"
                    },
                    "401": {
                        "description": "Unauthenticated"
                    },
                    "403": {
                        "description": "Forbidden"
                    },
                    "404": {
                        "description": "Resource Not Found"
                    }
                }
            },
            "delete": {
                "tags": [
                    "Plant"
                ],
                "summary": "Delete existing plant",
                "description": "Deletes a record and returns no content",
                "operationId": "deletePlant",
                "parameters": [
                    {
                        "name": "id",
                        "in": "path",
                        "description": "Plant id",
                        "required": true,
                        "schema": {
                            "type": "integer"
                        }
                    }
                ],
                "responses": {
                    "204": {
                        "description": "Successful operation"
                    },
                    "401": {
                        "description": "Unauthenticated"
                    },
                    "403": {
                        "description": "Forbidden"
                    },
                    "404": {
                        "description": "Resource Not Found"
                    }
                }
            }
        },
        "/api/v1/plant-definition": {
            "get": {
                "tags": [
                    "PlantDefinition"
                ],
                "summary": "List all plants definitions",
                "description": "Returns plant definitions data",
                "operationId": "listPlantDefinitions",
                "responses": {
                    "200": {
                        "description": "Successful operation",
                        "content": {
                            "application/json": {
                                "schema": {
                                    "example": {
                                        "data": "[]",
                                        "links": {
                                            "self": "link-value"
                                        }
                                    }
                                }
                            }
                        }
                    },
                    "400": {
                        "description": "Bad Request"
                    },
                    "401": {
                        "description": "Unauthenticated"
                    }
                }
            },
            "post": {
                "tags": [
                    "PlantDefinition"
                ],
                "summary": "Store new plant definition",
                "description": "Returns plant definition data",
                "operationId": "storePlantDefinition",
                "requestBody": {
                    "required": true,
                    "content": {
                        "application/json": {
                            "schema": {
                                "required": [
                                    "name",
                                    "family"
                                ],
                                "properties": {
                                    "name": {
                                        "type": "string",
                                        "example": "Tomate"
                                    },
                                    "family": {
                                        "type": "string",
                                        "example": "Solanaceae"
                                    },
                                    "description": {
                                        "type": "string",
                                        "example": "..."
                                    }
                                },
                                "type": "object"
                            }
                        }
                    }
                },
                "responses": {
                    "201": {
                        "description": "Successful operation"
                    },
                    "400": {
                        "description": "Bad Request"
                    },
                    "401": {
                        "description": "Unauthenticated"
                    },
                    "403": {
                        "description": "Forbidden"
                    }
                }
            }
        },
        "/api/v1/plant-definition/{id}": {
            "get": {
                "tags": [
                    "PlantDefinition"
                ],
                "summary": "Get plant definition information",
                "description": "Returns plant definition data",
                "operationId": "getPlantDefinitionById",
                "parameters": [
                    {
                        "name": "id",
                        "in": "path",
                        "description": "Plant definition id",
                        "required": true,
                        "schema": {
                            "type": "integer"
                        }
                    }
                ],
                "responses": {
                    "200": {
                        "description": "Successful operation",
                        "content": {
                            "application/json": {
                                "schema": {
                                    "example": {
                                        "name": "Tomate",
                                        "family": "Solanaceae",
                                        "description": "..."
                                    }
                                }
                            }
                        }
                    },
                    "400": {
                        "description": "Bad Request"
                    },
                    "401": {
                        "description": "Unauthenticated"
                    },
                    "403": {
                        "description": "Forbidden"
                    }
                }
            },
            "put": {
                "tags": [
                    "PlantDefinition"
                ],
                "summary": "Update existing plant definition",
                "description": "Returns updated plant definition data",
                "operationId": "updatePlantDefinition",
                "parameters": [
                    {
                        "name": "id",
                        "in": "path",
                        "description": "Plant definition id",
                        "required": true,
                        "schema": {
                            "type": "integer"
                        }
                    }
                ],
                "requestBody": {
                    "required": true,
                    "content": {
                        "application/json": {
                            "schema": {
                                "required": [
                                    "name",
                                    "family"
                                ],
                                "properties": {
                                    "name": {
                                        "type": "string",
                                        "example": "Tomate"
                                    },
                                    "family": {
                                        "type": "string",
                                        "example": "Solanaceae"
                                    },
                                    "description": {
                                        "type": "string",
                                        "example": "..."
                                    }
                                },
                                "type": "object"
                            }
                        }
                    }
                },
                "responses": {
                    "202": {
                        "description": "Successful operation"
                    },
                    "400": {
                        "description": "Bad Request"
                    },
                    "401": {
                        "description": "Unauthenticated"
                    },
                    "403": {
                        "description": "Forbidden"
                    },
                    "404": {
                        "description": "Resource Not Found"
                    }
                }
            },
            "delete": {
                "tags": [
                    "PlantDefinition"
                ],
                "summary": "Delete existing plant definition",
                "description": "Deletes a record and returns no content",
                "operationId": "deletePlantDefinition",
                "parameters": [
                    {
                        "name": "id",
                        "in": "path",
                        "description": "Plant Definition id",
                        "required": true,
                        "schema": {
                            "type": "integer"
                        }
                    }
                ],
                "responses": {
                    "204": {
                        "description": "Successful operation"
                    },
                    "401": {
                        "description": "Unauthenticated"
                    },
                    "403": {
                        "description": "Forbidden"
                    },
                    "404": {
                        "description": "Resource Not Found"
                    }
                }
            }
        },
        "/api/v1/plant-family": {
            "get": {
                "tags": [
                    "PlantFamily"
                ],
                "summary": "List all plant families",
                "description": "Returns plant families data",
                "operationId": "listPlantFamily",
                "responses": {
                    "200": {
                        "description": "Successful operation",
                        "content": {
                            "application/json": {
                                "schema": {
                                    "example": {
                                        "data": "[]",
                                        "links": {
                                            "self": "link-value"
                                        }
                                    }
                                }
                            }
                        }
                    },
                    "400": {
                        "description": "Bad Request"
                    },
                    "401": {
                        "description": "Unauthenticated"
                    }
                }
            },
            "post": {
                "tags": [
                    "PlantFamily"
                ],
                "summary": "Store new plant family",
                "description": "Returns plant family data",
                "operationId": "storePlantFamily",
                "requestBody": {
                    "required": true,
                    "content": {
                        "application/json": {
                            "schema": {
                                "required": [
                                    "name"
                                ],
                                "properties": {
                                    "name": {
                                        "type": "string",
                                        "example": "Solanaceae"
                                    }
                                },
                                "type": "object"
                            }
                        }
                    }
                },
                "responses": {
                    "201": {
                        "description": "Successful operation"
                    },
                    "400": {
                        "description": "Bad Request"
                    },
                    "401": {
                        "description": "Unauthenticated"
                    },
                    "403": {
                        "description": "Forbidden"
                    }
                }
            }
        },
        "/api/v1/plant-family/{id}": {
            "get": {
                "tags": [
                    "PlantFamily"
                ],
                "summary": "Get plant family information",
                "description": "Returns plant family data",
                "operationId": "getPlantFamilyById",
                "parameters": [
                    {
                        "name": "id",
                        "in": "path",
                        "description": "Plant family id",
                        "required": true,
                        "schema": {
                            "type": "integer"
                        }
                    }
                ],
                "responses": {
                    "200": {
                        "description": "Successful operation",
                        "content": {
                            "application/json": {
                                "schema": {
                                    "example": {
                                        "name": "Solanaceae",
                                        "created_at": "2023-03-12T10:30:22.000000Z",
                                        "updated_at": "2023-03-12T10:30:22.000000Z"
                                    }
                                }
                            }
                        }
                    },
                    "400": {
                        "description": "Bad Request"
                    },
                    "401": {
                        "description": "Unauthenticated"
                    },
                    "403": {
                        "description": "Forbidden"
                    }
                }
            },
            "put": {
                "tags": [
                    "PlantFamily"
                ],
                "summary": "Update existing plant family",
                "description": "Returns updated plant family data",
                "operationId": "updatePlantFamily",
                "parameters": [
                    {
                        "name": "id",
                        "in": "path",
                        "description": "Plant family id",
                        "required": true,
                        "schema": {
                            "type": "integer"
                        }
                    }
                ],
                "requestBody": {
                    "required": true,
                    "content": {
                        "application/json": {
                            "schema": {
                                "required": [
                                    "name"
                                ],
                                "properties": {
                                    "name": {
                                        "type": "string",
                                        "example": "Solanaceae"
                                    }
                                },
                                "type": "object"
                            }
                        }
                    }
                },
                "responses": {
                    "202": {
                        "description": "Successful operation"
                    },
                    "400": {
                        "description": "Bad Request"
                    },
                    "401": {
                        "description": "Unauthenticated"
                    },
                    "403": {
                        "description": "Forbidden"
                    },
                    "404": {
                        "description": "Resource Not Found"
                    }
                }
            },
            "delete": {
                "tags": [
                    "PlantFamily"
                ],
                "summary": "Delete existing plant family",
                "description": "Deletes a record and returns no content",
                "operationId": "deletePlantFamily",
                "parameters": [
                    {
                        "name": "id",
                        "in": "path",
                        "description": "Plant family id",
                        "required": true,
                        "schema": {
                            "type": "integer"
                        }
                    }
                ],
                "responses": {
                    "204": {
                        "description": "Successful operation"
                    },
                    "401": {
                        "description": "Unauthenticated"
                    },
                    "403": {
                        "description": "Forbidden"
                    },
                    "404": {
                        "description": "Resource Not Found"
                    }
                }
            }
        },
        "/api/v1/task": {
            "get": {
                "tags": [
                    "Task"
                ],
                "summary": "List all tasks",
                "description": "Returns tasks data",
                "operationId": "listTask",
                "responses": {
                    "200": {
                        "description": "Successful operation",
                        "content": {
                            "application/json": {
                                "schema": {
                                    "example": {
                                        "data": "[]",
                                        "links": {
                                            "self": "link-value"
                                        }
                                    }
                                }
                            }
                        }
                    },
                    "400": {
                        "description": "Bad Request"
                    },
                    "401": {
                        "description": "Unauthenticated"
                    }
                }
            },
            "post": {
                "tags": [
                    "Task"
                ],
                "summary": "Store new task",
                "description": "Returns task data",
                "operationId": "storeTask",
                "requestBody": {
                    "required": true,
                    "content": {
                        "application/json": {
                            "schema": {
                                "required": [
                                    "date_beg, task_definition"
                                ],
                                "properties": {
                                    "name": {
                                        "type": "string",
                                        "example": "Sowing Patatoes"
                                    },
                                    "date_beg": {
                                        "type": "string",
                                        "format": "date",
                                        "example": "2023-08-12"
                                    },
                                    "date_end": {
                                        "type": "string",
                                        "format": "date",
                                        "example": "2023-08-12"
                                    },
                                    "task_definition": {
                                        "type": "integer",
                                        "example": "1"
                                    },
                                    "plant": {
                                        "type": "integer",
                                        "example": "1"
                                    },
                                    "zone": {
                                        "type": "integer",
                                        "example": "1"
                                    },
                                    "description": {
                                        "type": "string",
                                        "example": "..."
                                    }
                                },
                                "type": "object"
                            }
                        }
                    }
                },
                "responses": {
                    "201": {
                        "description": "Successful operation"
                    },
                    "400": {
                        "description": "Bad Request"
                    },
                    "401": {
                        "description": "Unauthenticated"
                    },
                    "403": {
                        "description": "Forbidden"
                    }
                }
            }
        },
        "/api/v1/task/{id}": {
            "get": {
                "tags": [
                    "Task"
                ],
                "summary": "Get task information",
                "description": "Returns task data",
                "operationId": "getTaskById",
                "parameters": [
                    {
                        "name": "id",
                        "in": "path",
                        "description": "task id",
                        "required": true,
                        "schema": {
                            "type": "integer"
                        }
                    }
                ],
                "responses": {
                    "200": {
                        "description": "Successful operation",
                        "content": {
                            "application/json": {
                                "schema": {
                                    "example": {
                                        "id": "1",
                                        "name": "Sowing potatoes",
                                        "category": "Sow",
                                        "task_definition": "{'id':'1', 'name':'Sowing potatoes'}",
                                        "plant": "{'id': '1', 'name':'Potato', 'plant_definition_id': '1'}",
                                        "zone": "{'id':'1', 'name':'Zone 1'}",
                                        "description": "...",
                                        "date_beg": "2020-12-08",
                                        "date_end": "2020-12-08"
                                    }
                                }
                            }
                        }
                    },
                    "400": {
                        "description": "Bad Request"
                    },
                    "401": {
                        "description": "Unauthenticated"
                    },
                    "403": {
                        "description": "Forbidden"
                    }
                }
            },
            "put": {
                "tags": [
                    "Task"
                ],
                "summary": "Update existing task",
                "description": "Returns updated task data",
                "operationId": "updateTask",
                "parameters": [
                    {
                        "name": "id",
                        "in": "path",
                        "description": "task id",
                        "required": true,
                        "schema": {
                            "type": "integer"
                        }
                    }
                ],
                "requestBody": {
                    "required": true,
                    "content": {
                        "application/json": {
                            "schema": {
                                "properties": {
                                    "name": {
                                        "type": "string",
                                        "example": "Sowing Patatoes"
                                    },
                                    "date_beg": {
                                        "type": "string",
                                        "format": "date",
                                        "example": "2023-08-12"
                                    },
                                    "date_end": {
                                        "type": "string",
                                        "format": "date",
                                        "example": "2023-08-12"
                                    },
                                    "task_definition": {
                                        "type": "integer",
                                        "example": "1"
                                    },
                                    "plant": {
                                        "type": "integer",
                                        "example": "1"
                                    },
                                    "zone": {
                                        "type": "integer",
                                        "example": "1"
                                    },
                                    "description": {
                                        "type": "string",
                                        "example": "..."
                                    }
                                },
                                "type": "object"
                            }
                        }
                    }
                },
                "responses": {
                    "202": {
                        "description": "Successful operation"
                    },
                    "400": {
                        "description": "Bad Request"
                    },
                    "401": {
                        "description": "Unauthenticated"
                    },
                    "403": {
                        "description": "Forbidden"
                    },
                    "404": {
                        "description": "Resource Not Found"
                    }
                }
            },
            "delete": {
                "tags": [
                    "Task"
                ],
                "summary": "Delete existing task",
                "description": "Deletes a record and returns no content",
                "operationId": "deleteTask",
                "parameters": [
                    {
                        "name": "id",
                        "in": "path",
                        "description": "task id",
                        "required": true,
                        "schema": {
                            "type": "integer"
                        }
                    }
                ],
                "responses": {
                    "204": {
                        "description": "Successful operation"
                    },
                    "401": {
                        "description": "Unauthenticated"
                    },
                    "403": {
                        "description": "Forbidden"
                    },
                    "404": {
                        "description": "Resource Not Found"
                    }
                }
            }
        },
        "/api/v1/task-definition": {
            "get": {
                "tags": [
                    "TaskDefinition"
                ],
                "summary": "List all task definitions",
                "description": "Returns task definitions data",
                "operationId": "listTaskDefinition",
                "responses": {
                    "200": {
                        "description": "Successful operation",
                        "content": {
                            "application/json": {
                                "schema": {
                                    "example": {
                                        "data": "[]",
                                        "links": {
                                            "self": "link-value"
                                        }
                                    }
                                }
                            }
                        }
                    },
                    "400": {
                        "description": "Bad Request"
                    },
                    "401": {
                        "description": "Unauthenticated"
                    }
                }
            },
            "post": {
                "tags": [
                    "TaskDefinition"
                ],
                "summary": "Store new task definition",
                "description": "Returns task definition  data",
                "operationId": "storeTaskDefinition",
                "requestBody": {
                    "required": true,
                    "content": {
                        "application/json": {
                            "schema": {
                                "required": [
                                    "name",
                                    "category"
                                ],
                                "properties": {
                                    "name": {
                                        "type": "string",
                                        "example": "Sowing Patatoes"
                                    },
                                    "category": {
                                        "type": "string",
                                        "example": "Sow"
                                    },
                                    "task_definition_id": {
                                        "type": "integer",
                                        "example": "1"
                                    },
                                    "description": {
                                        "type": "string",
                                        "example": "..."
                                    },
                                    "date_beg": {
                                        "type": "string",
                                        "format": "date",
                                        "example": ""
                                    },
                                    "date_end": {
                                        "type": "string",
                                        "format": "date",
                                        "example": ""
                                    },
                                    "plant_definition": {
                                        "type": "string",
                                        "format": "date",
                                        "example": ""
                                    }
                                },
                                "type": "object"
                            }
                        }
                    }
                },
                "responses": {
                    "201": {
                        "description": "Successful operation"
                    },
                    "400": {
                        "description": "Bad Request"
                    },
                    "401": {
                        "description": "Unauthenticated"
                    },
                    "403": {
                        "description": "Forbidden"
                    }
                }
            }
        },
        "/api/v1/task-definition/{id}": {
            "get": {
                "tags": [
                    "TaskDefinition"
                ],
                "summary": "Get task definition information",
                "description": "Returns task definition data",
                "operationId": "getTaskDefinitionById",
                "parameters": [
                    {
                        "name": "id",
                        "in": "path",
                        "description": "task definition id",
                        "required": true,
                        "schema": {
                            "type": "integer"
                        }
                    }
                ],
                "responses": {
                    "200": {
                        "description": "Successful operation",
                        "content": {
                            "application/json": {
                                "schema": {
                                    "example": {
                                        "id": 1,
                                        "name": "Sowing potatoes",
                                        "category": "Sow",
                                        "task_definition_type": "{id:1, name:'Sow'}",
                                        "description": "...",
                                        "date_beg": "2020-12-08",
                                        "date_end": "2020-12-08",
                                        "plant_definition": "{id:1, name:'Pommier'}"
                                    }
                                }
                            }
                        }
                    },
                    "400": {
                        "description": "Bad Request"
                    },
                    "401": {
                        "description": "Unauthenticated"
                    },
                    "403": {
                        "description": "Forbidden"
                    }
                }
            },
            "put": {
                "tags": [
                    "TaskDefinition"
                ],
                "summary": "Update existing task definition",
                "description": "Returns updated task definition data",
                "operationId": "updateTaskDefinition",
                "parameters": [
                    {
                        "name": "id",
                        "in": "path",
                        "description": "task definition id",
                        "required": true,
                        "schema": {
                            "type": "integer"
                        }
                    }
                ],
                "requestBody": {
                    "required": true,
                    "content": {
                        "application/json": {
                            "schema": {
                                "required": [
                                    "name",
                                    "category"
                                ],
                                "properties": {
                                    "name": {
                                        "type": "string",
                                        "example": "Sowing potatoes"
                                    },
                                    "category": {
                                        "type": "string",
                                        "example": "Sow"
                                    },
                                    "task_definition_type": {
                                        "type": "integer",
                                        "example": "1"
                                    },
                                    "description": {
                                        "type": "string",
                                        "example": "..."
                                    },
                                    "date_beg": {
                                        "type": "string",
                                        "format": "date",
                                        "example": "2020-12-08"
                                    },
                                    "date_end": {
                                        "type": "string",
                                        "format": "date",
                                        "example": "2020-12-08"
                                    },
                                    "plant_definition": {
                                        "type": "integer",
                                        "example": "1"
                                    }
                                },
                                "type": "object"
                            }
                        }
                    }
                },
                "responses": {
                    "202": {
                        "description": "Successful operation"
                    },
                    "400": {
                        "description": "Bad Request"
                    },
                    "401": {
                        "description": "Unauthenticated"
                    },
                    "403": {
                        "description": "Forbidden"
                    },
                    "404": {
                        "description": "Resource Not Found"
                    }
                }
            },
            "delete": {
                "tags": [
                    "TaskDefinition"
                ],
                "summary": "Delete existing task definition",
                "description": "Deletes a record and returns no content",
                "operationId": "deleteTaskDefinition",
                "parameters": [
                    {
                        "name": "id",
                        "in": "path",
                        "description": "task definition id",
                        "required": true,
                        "schema": {
                            "type": "integer"
                        }
                    }
                ],
                "responses": {
                    "204": {
                        "description": "Successful operation"
                    },
                    "401": {
                        "description": "Unauthenticated"
                    },
                    "403": {
                        "description": "Forbidden"
                    },
                    "404": {
                        "description": "Resource Not Found"
                    }
                }
            }
        },
        "/api/v1/task-definition-type": {
            "get": {
                "tags": [
                    "TaskDefinitionType"
                ],
                "summary": "List all task definition types",
                "description": "Returns task definition types data",
                "operationId": "listTaskDefinitionType",
                "responses": {
                    "200": {
                        "description": "Successful operation",
                        "content": {
                            "application/json": {
                                "schema": {
                                    "example": {
                                        "data": "[]",
                                        "links": {
                                            "self": "link-value"
                                        }
                                    }
                                }
                            }
                        }
                    },
                    "400": {
                        "description": "Bad Request"
                    },
                    "401": {
                        "description": "Unauthenticated"
                    }
                }
            },
            "post": {
                "tags": [
                    "TaskDefinitionType"
                ],
                "summary": "Store new task definition type",
                "description": "Returns task definition type data",
                "operationId": "storeTaskDefinitionType",
                "requestBody": {
                    "required": true,
                    "content": {
                        "application/json": {
                            "schema": {
                                "required": [
                                    "name"
                                ],
                                "properties": {
                                    "name": {
                                        "type": "string",
                                        "example": "Sow"
                                    }
                                },
                                "type": "object"
                            }
                        }
                    }
                },
                "responses": {
                    "201": {
                        "description": "Successful operation"
                    },
                    "400": {
                        "description": "Bad Request"
                    },
                    "401": {
                        "description": "Unauthenticated"
                    },
                    "403": {
                        "description": "Forbidden"
                    }
                }
            }
        },
        "/api/v1/task-definition-type/{id}": {
            "get": {
                "tags": [
                    "TaskDefinitionType"
                ],
                "summary": "Get task definition type information",
                "description": "Returns task definition type data",
                "operationId": "getTaskDefinitionTypeById",
                "parameters": [
                    {
                        "name": "id",
                        "in": "path",
                        "description": "task definition type id",
                        "required": true,
                        "schema": {
                            "type": "integer"
                        }
                    }
                ],
                "responses": {
                    "200": {
                        "description": "Successful operation",
                        "content": {
                            "application/json": {
                                "schema": {
                                    "example": {
                                        "id": 1,
                                        "name": "Sow"
                                    }
                                }
                            }
                        }
                    },
                    "400": {
                        "description": "Bad Request"
                    },
                    "401": {
                        "description": "Unauthenticated"
                    },
                    "403": {
                        "description": "Forbidden"
                    }
                }
            },
            "put": {
                "tags": [
                    "TaskDefinitionType"
                ],
                "summary": "Update existing task definition type",
                "description": "Returns updated task definition type data",
                "operationId": "updateTaskDefinitionType",
                "parameters": [
                    {
                        "name": "id",
                        "in": "path",
                        "description": "task definition type id",
                        "required": true,
                        "schema": {
                            "type": "integer"
                        }
                    }
                ],
                "requestBody": {
                    "required": true,
                    "content": {
                        "application/json": {
                            "schema": {
                                "required": [
                                    "name"
                                ],
                                "properties": {
                                    "name": {
                                        "type": "string",
                                        "example": "Sow"
                                    }
                                },
                                "type": "object"
                            }
                        }
                    }
                },
                "responses": {
                    "202": {
                        "description": "Successful operation"
                    },
                    "400": {
                        "description": "Bad Request"
                    },
                    "401": {
                        "description": "Unauthenticated"
                    },
                    "403": {
                        "description": "Forbidden"
                    },
                    "404": {
                        "description": "Resource Not Found"
                    }
                }
            },
            "delete": {
                "tags": [
                    "TaskDefinitionType"
                ],
                "summary": "Delete existing task definition type",
                "description": "Deletes a record and returns no content",
                "operationId": "deleteTaskDefinitionType",
                "parameters": [
                    {
                        "name": "id",
                        "in": "path",
                        "description": "task definition type id",
                        "required": true,
                        "schema": {
                            "type": "integer"
                        }
                    }
                ],
                "responses": {
                    "204": {
                        "description": "Successful operation"
                    },
                    "401": {
                        "description": "Unauthenticated"
                    },
                    "403": {
                        "description": "Forbidden"
                    },
                    "404": {
                        "description": "Resource Not Found"
                    }
                }
            }
        },
        "/api/v1/zone": {
            "get": {
                "tags": [
                    "Zone"
                ],
                "summary": "List all zones",
                "description": "Returns zones data",
                "operationId": "listZone",
                "responses": {
                    "200": {
                        "description": "Successful operation",
                        "content": {
                            "application/json": {
                                "schema": {
                                    "example": {
                                        "data": "[]",
                                        "links": {
                                            "self": "link-value"
                                        }
                                    }
                                }
                            }
                        }
                    },
                    "400": {
                        "description": "Bad Request"
                    },
                    "401": {
                        "description": "Unauthenticated"
                    }
                }
            },
            "post": {
                "tags": [
                    "Zone"
                ],
                "summary": "Store new zone",
                "description": "Returns zone data",
                "operationId": "storeZone",
                "requestBody": {
                    "required": true,
                    "content": {
                        "application/json": {
                            "schema": {
                                "required": [
                                    "name"
                                ],
                                "properties": {
                                    "name": {
                                        "type": "string",
                                        "example": "Potager"
                                    },
                                    "width": {
                                        "type": "integer",
                                        "example": "0"
                                    },
                                    "height": {
                                        "type": "integer",
                                        "example": "0"
                                    },
                                    "position_top": {
                                        "type": "integer",
                                        "example": "0"
                                    },
                                    "position_left": {
                                        "type": "integer",
                                        "example": "0"
                                    }
                                },
                                "type": "object"
                            }
                        }
                    }
                },
                "responses": {
                    "201": {
                        "description": "Successful operation"
                    },
                    "400": {
                        "description": "Bad Request"
                    },
                    "401": {
                        "description": "Unauthenticated"
                    },
                    "403": {
                        "description": "Forbidden"
                    }
                }
            }
        },
        "/api/v1/zone/{id}": {
            "get": {
                "tags": [
                    "Zone"
                ],
                "summary": "Get Zone information",
                "description": "Returns Zone data",
                "operationId": "getZoneById",
                "parameters": [
                    {
                        "name": "id",
                        "in": "path",
                        "description": "Zone id",
                        "required": true,
                        "schema": {
                            "type": "integer"
                        }
                    }
                ],
                "responses": {
                    "200": {
                        "description": "Successful operation",
                        "content": {
                            "application/json": {
                                "schema": {
                                    "example": {
                                        "id": 1,
                                        "name": "Potager",
                                        "plants": "[]",
                                        "tasks": "[]"
                                    }
                                }
                            }
                        }
                    },
                    "400": {
                        "description": "Bad Request"
                    },
                    "401": {
                        "description": "Unauthenticated"
                    },
                    "403": {
                        "description": "Forbidden"
                    }
                }
            },
            "put": {
                "tags": [
                    "Zone"
                ],
                "summary": "Update existing zone",
                "description": "Returns updated zone data",
                "operationId": "updateZone",
                "parameters": [
                    {
                        "name": "id",
                        "in": "path",
                        "description": "zone id",
                        "required": true,
                        "schema": {
                            "type": "integer"
                        }
                    }
                ],
                "requestBody": {
                    "required": true,
                    "content": {
                        "application/json": {
                            "schema": {
                                "required": [
                                    "name"
                                ],
                                "properties": {
                                    "name": {
                                        "type": "string",
                                        "example": "Potager"
                                    }
                                },
                                "type": "object"
                            }
                        }
                    }
                },
                "responses": {
                    "202": {
                        "description": "Successful operation"
                    },
                    "400": {
                        "description": "Bad Request"
                    },
                    "401": {
                        "description": "Unauthenticated"
                    },
                    "403": {
                        "description": "Forbidden"
                    },
                    "404": {
                        "description": "Resource Not Found"
                    }
                }
            },
            "delete": {
                "tags": [
                    "Zone"
                ],
                "summary": "Delete existing Zone",
                "description": "Deletes a record and returns no content",
                "operationId": "deleteZone",
                "parameters": [
                    {
                        "name": "id",
                        "in": "path",
                        "description": "zone id",
                        "required": true,
                        "schema": {
                            "type": "integer"
                        }
                    }
                ],
                "responses": {
                    "204": {
                        "description": "Successful operation"
                    },
                    "401": {
                        "description": "Unauthenticated"
                    },
                    "403": {
                        "description": "Forbidden"
                    },
                    "404": {
                        "description": "Resource Not Found"
                    }
                }
            }
        }
    },
    "tags": [
        {
            "name": "Map my garden",
            "description": "API Endpoints of Map my garden"
        }
    ]
}